﻿market_price,sq_meters,age_years,bias
630,160.5,35,1
651,248.9,45,1
699,155.3,20,1
768,240.4,32,1
739,188.4,25,1
779,155.8,14,1
749,174.8,8,1
780,310.5,10,1
790,168.2,28,1
834,247,30,1
795,182,2,1
839,214.3,6,1
797,212.1,14,1
845,248.5,9,1
960,230,19,1
1095,271.4,4,1
1025,246.3,5,1
1210,307.6,7,1
1049,304.8,3,1
1280,326.7,6,1
1290,306.9,10,1
1179,476.5,11,1
1400,454,8,1
